{
    "hdr": {
        "control": {
            "auto_range_method": 0, 
            "bd_range": true, 
            "auto_bd_filter_method": 0, 
            "bd_depth": false, 
            "auto_gain_method": 0
        }, 
        "power_sel": 220.0, 
        "ping_num": 508, 
        "prj": {
            "horiz_width": 2.0943951606750488, 
            "window_type": 0, 
            "horiz_angle": 0.0, 
            "vert_width": 0.017453299835324287, 
            "window_param": 0.0, 
            "focal_point": 10000000.0, 
            "id": 1, 
            "vert_angle": 0.0
        }, 
        "max_ping_rate": 2.0, 
        "envelope_type": 0, 
        "multi_ping": 0, 
        "xmit_freq": 396000.0, 
        "sound_speed": 1495.0, 
        "absorption": 0.0, 
        "range_sel": 75.0, 
        "pulse_type": 0, 
        "hydrophone_id": 0, 
        "transmit": {
            "yaw_stabilization": 0, 
            "pitch_stabilization": 0
        }, 
        "bd": {
            "max_range": 5.0, 
            "min_range": 1.0, 
            "min_depth": 1.0, 
            "max_depth": 5.0
        }, 
        "pulse_extra": 0, 
        "ping_period": 0.49999523162841797, 
        "rcvr_bandwidth": 0.0, 
        "recv": {
            "window_type": 0, 
            "flags": 1, 
            "window_param": 0.0, 
            "beam_width": 0.0080000003799796104
        }, 
        "sonar_id": 0, 
        "gain_sel": 53.0, 
        "sample_rate": 34482.7578125, 
        "spreading_loss": 0.0, 
        "pulse_width": 0.00050000002374872565, 
        "envelope_param": 0.0
    }
}